{
    "SEMEVAL10.darmstadt_unis": {
        "train_data_path": "../data/task10/train.darmstadt_unis.conll",
        "validation_data_path": "../data/task10/dev.all.conll",
        "tasks": {
            "sentiment-expressions-darmstadt_unis": {
                "column_idx": 2,
                "task_type": "seq"
            },
            "sentiment-nominals-darmstadt_unis": {
                "column_idx": 3,
                "task_type": "seq"
            },
            "sentiment-relations-darmstadt_unis": {
                "column_idx": 4,
                "task_type": "seq"
            }
        },
        "word_idx": 1
    },
    "SEMEVAL10.mpqa": {
        "train_data_path": "../data/task10/train.mpqa.conll",
        "validation_data_path": "../data/task10/dev.all.conll",
        "tasks": {
            "sentiment-expressions-mpqa": {
                "column_idx": 2,
                "task_type": "seq"
            },
            "sentiment-nominals-mpqa": {
                "column_idx": 3,
                "task_type": "seq"
            },
            "sentiment-relations-mpqa": {
                "column_idx": 4,
                "task_type": "seq"
            }
        },
        "word_idx": 1
    },
    "SEMEVAL10.norec": {
        "train_data_path": "../data/task10/train.norec.conll",
        "validation_data_path": "../data/task10/dev.all.conll",
        "tasks": {
            "sentiment-expressions-norec": {
                "column_idx": 2,
                "task_type": "seq"
            },
            "sentiment-nominals-norec": {
                "column_idx": 3,
                "task_type": "seq"
            },
            "sentiment-relations-norec": {
                "column_idx": 4,
                "task_type": "seq"
            }
        },
        "word_idx": 1
    },
    "SEMEVAL10.opener_en": {
        "train_data_path": "../data/task10/train.opener_en.conll",
        "validation_data_path": "../data/task10/dev.all.conll",
        "tasks": {
            "sentiment-expressions-opener_en": {
                "column_idx": 2,
                "task_type": "seq"
            },
            "sentiment-nominals-opener_en": {
                "column_idx": 3,
                "task_type": "seq"
            },
            "sentiment-relations-opener_en": {
                "column_idx": 4,
                "task_type": "seq"
            }
        },
        "word_idx": 1
    }
}