{
    "SEMEVAL6-c.ar": {
        "train_data_path": "../data/task6/3.train.ar.conll",
        "validation_data_path": "../data/task6/3.dev.ar.conll",
        "enc_dataset_embed_idx": -1,
        "sent_idxs": [
            1,
            3
        ],
        "tasks": {
            "paraphrase": {
                "column_idx": 2,
                "task_type": "classification"
            }
        }
    },
    "SEMEVAL6-c.en": {
        "train_data_path": "../data/task6/3.train.en.conll",
        "validation_data_path": "../data/task6/3.dev.en.conll",
        "enc_dataset_embed_idx": -1,
        "sent_idxs": [
            1,
            3
        ],
        "tasks": {
            "paraphrase": {
                "column_idx": 2,
                "task_type": "classification"
            }
        }
    }
}