{
    "SEMEVAL11.bn": {
        "train_data_path": "../data/task11/train.bn.conll",
        "validation_data_path": "../data/task11/dev.bn.conll",
        "tasks": {
            "ner-bn": {
                "column_idx": 3,
                "task_type": "seq_bio"
            }
        },
        "word_idx": 0
    },
    "SEMEVAL11.de": {
        "train_data_path": "../data/task11/train.de.conll",
        "validation_data_path": "../data/task11/dev.de.conll",
        "tasks": {
            "ner-de": {
                "column_idx": 3,
                "task_type": "seq_bio"
            }
        },
        "word_idx": 0
    },
    "SEMEVAL11.en": {
        "train_data_path": "../data/task11/train.en.conll",
        "validation_data_path": "../data/task11/dev.en.conll",
        "tasks": {
            "ner-en": {
                "column_idx": 3,
                "task_type": "seq_bio"
            }
        },
        "word_idx": 0
    },
    "SEMEVAL11.es": {
        "train_data_path": "../data/task11/train.es.conll",
        "validation_data_path": "../data/task11/dev.es.conll",
        "tasks": {
            "ner-es": {
                "column_idx": 3,
                "task_type": "seq_bio"
            }
        },
        "word_idx": 0
    },
    "SEMEVAL11.fa": {
        "train_data_path": "../data/task11/train.fa.conll",
        "validation_data_path": "../data/task11/dev.fa.conll",
        "tasks": {
            "ner-fa": {
                "column_idx": 3,
                "task_type": "seq_bio"
            }
        },
        "word_idx": 0
    },
    "SEMEVAL11.hi": {
        "train_data_path": "../data/task11/train.hi.conll",
        "validation_data_path": "../data/task11/dev.hi.conll",
        "tasks": {
            "ner-hi": {
                "column_idx": 3,
                "task_type": "seq_bio"
            }
        },
        "word_idx": 0
    },
    "SEMEVAL11.ko": {
        "train_data_path": "../data/task11/train.ko.conll",
        "validation_data_path": "../data/task11/dev.ko.conll",
        "tasks": {
            "ner-ko": {
                "column_idx": 3,
                "task_type": "seq_bio"
            }
        },
        "word_idx": 0
    },
    "SEMEVAL11.mi": {
        "train_data_path": "../data/task11/train.mi.conll",
        "validation_data_path": "../data/task11/dev.mi.conll",
        "tasks": {
            "ner-mi": {
                "column_idx": 3,
                "task_type": "seq_bio"
            }
        },
        "word_idx": 0
    },
    "SEMEVAL11.nl": {
        "train_data_path": "../data/task11/train.nl.conll",
        "validation_data_path": "../data/task11/dev.nl.conll",
        "tasks": {
            "ner-nl": {
                "column_idx": 3,
                "task_type": "seq_bio"
            }
        },
        "word_idx": 0
    },
    "SEMEVAL11.ru": {
        "train_data_path": "../data/task11/train.ru.conll",
        "validation_data_path": "../data/task11/dev.ru.conll",
        "tasks": {
            "ner-ru": {
                "column_idx": 3,
                "task_type": "seq_bio"
            }
        },
        "word_idx": 0
    },
    "SEMEVAL11.tr": {
        "train_data_path": "../data/task11/train.tr.conll",
        "validation_data_path": "../data/task11/dev.tr.conll",
        "tasks": {
            "ner-tr": {
                "column_idx": 3,
                "task_type": "seq_bio"
            }
        },
        "word_idx": 0
    },
    "SEMEVAL11.zh": {
        "train_data_path": "../data/task11/train.zh.conll",
        "validation_data_path": "../data/task11/dev.zh.conll",
        "tasks": {
            "ner-zh": {
                "column_idx": 3,
                "task_type": "seq_bio"
            }
        },
        "word_idx": 0
    }
}