{
    "SEMEVAL4-1": {
        "train_data_path": "../data/task4/1.train.en.conll",
        "validation_data_path": "../data/task4/1.dev.conll",
        "enc_dataset_embeds": -1,
        "sent_idxs": [4],
        "tasks": {
            "pcl_binary": {
                "task_type": "classification",
                "column_idx": 5
            }
        }
    }
}

