{
    "SEMEVAL6-c": {
        "train_data_path": "../data/task6/3.train.all.conll",
        "validation_data_path": "../data/task6/3.dev.all.conll",
        "sent_idxs": [1,3],
        "tasks": {
            "paraphrase": {
                "task_type": "classification",
                "column_idx": 2
            }
        }
    }
}

