{
    "SEMEVAL3-2.en": {
        "train_data_path": "../data/task3/2.train.en.conll",
        "validation_data_path": "../data/task3/2.dev.en.conll",
        "sent_idxs": [
            1
        ],
        "tasks": {
            "sts-en": {
                "column_idx": 2,
                "metric": "spearman",
                "task_type": "regression"
            }
        }
    },
    "SEMEVAL3-2.fr": {
        "train_data_path": "../data/task3/2.train.fr.conll",
        "validation_data_path": "../data/task3/2.dev.fr.conll",
        "sent_idxs": [
            1
        ],
        "tasks": {
            "sts-fr": {
                "column_idx": 2,
                "metric": "spearman",
                "task_type": "regression"
            }
        }
    },
    "SEMEVAL3-2.it": {
        "train_data_path": "../data/task3/2.train.it.conll",
        "validation_data_path": "../data/task3/2.dev.it.conll",
        "sent_idxs": [
            1
        ],
        "tasks": {
            "sts-it": {
                "column_idx": 2,
                "metric": "spearman",
                "task_type": "regression"
            }
        }
    }
}