{
    "SEMEVAL10.darmstadt_unis": {
        "train_data_path": "../data/task10/cross-train.darmstadt_unis.conll",
        "validation_data_path": "../data/task10/cross-dev.all.conll",
        "enc_dataset_embeds": -1,
        "tasks": {
            "sentiment-expressions": {
                "column_idx": 2,
                "metric": "multi_span_f1",
                "task_type": "multiseq"
            },
            "sentiment-nominals": {
                "column_idx": 3,
                "metric": "multi_span_f1",
                "task_type": "multiseq"
            },
            "sentiment-relations": {
                "column_idx": 4,
                "task_type": "multiseq"
            }
        },
        "word_idx": 1
    },
    "SEMEVAL10.mpqa": {
        "train_data_path": "../data/task10/cross-train.mpqa.conll",
        "validation_data_path": "../data/task10/cross-dev.all.conll",
        "enc_dataset_embeds": -1,
        "tasks": {
            "sentiment-expressions": {
                "column_idx": 2,
                "metric": "multi_span_f1",
                "task_type": "multiseq"
            },
            "sentiment-nominals": {
                "column_idx": 3,
                "metric": "multi_span_f1",
                "task_type": "multiseq"
            },
            "sentiment-relations": {
                "column_idx": 4,
                "task_type": "multiseq"
            }
        },
        "word_idx": 1
    },
    "SEMEVAL10.norec": {
        "train_data_path": "../data/task10/cross-train.norec.conll",
        "validation_data_path": "../data/task10/cross-dev.all.conll",
        "enc_dataset_embeds": -1,
        "tasks": {
            "sentiment-expressions": {
                "column_idx": 2,
                "metric": "multi_span_f1",
                "task_type": "multiseq"
            },
            "sentiment-nominals": {
                "column_idx": 3,
                "metric": "multi_span_f1",
                "task_type": "multiseq"
            },
            "sentiment-relations": {
                "column_idx": 4,
                "task_type": "multiseq"
            }
        },
        "word_idx": 1
    },
    "SEMEVAL10.opener_en": {
        "train_data_path": "../data/task10/cross-train.opener_en.conll",
        "validation_data_path": "../data/task10/cross-dev.all.conll",
        "enc_dataset_embeds": -1,
        "tasks": {
            "sentiment-expressions": {
                "column_idx": 2,
                "metric": "multi_span_f1",
                "task_type": "multiseq"
            },
            "sentiment-nominals": {
                "column_idx": 3,
                "metric": "multi_span_f1",
                "task_type": "multiseq"
            },
            "sentiment-relations": {
                "column_idx": 4,
                "task_type": "multiseq"
            }
        },
        "word_idx": 1
    }
}