{
    "SEMEVAL11.bn": {
        "train_data_path": "../data/task11/train.bn.conll",
        "validation_data_path": "../data/task11/dev.bn.conll",
        "tasks": {
            "ner-bn": {
                "column_idx": 3,
                "task_type": "seq_bio"
            }
        },
        "word_idx": 0
    },
    "SEMEVAL11.de": {
        "train_data_path": "../data/task11/train.de.conll",
        "validation_data_path": "../data/task11/dev.de.conll",
        "tasks": {
            "ner-de": {
                "column_idx": 3,
                "task_type": "seq_bio"
            }
        },
        "word_idx": 0
    },
    "SEMEVAL11.en": {
        "train_data_path": "../data/task11/train.en.conll",
        "validation_data_path": "../data/task11/dev.en.conll",
        "tasks": {
            "ner-en": {
                "column_idx": 3,
                "task_type": "seq_bio"
            }
        },
        "word_idx": 0
    },
    "SEMEVAL11.es": {
        "train_data_path": "../data/task11/train.es.conll",
        "validation_data_path": "../data/task11/dev.es.conll",
        "tasks": {
            "ner-es": {
                "column_idx": 3,
                "task_type": "seq_bio"
            }
        },
        "word_idx": 0
    },
    "SEMEVAL11.fa": {
        "train_data_path": "../data/task11/train.fa.conll",
        "validation_data_path": "../data/task11/dev.fa.conll",
        "tasks": {
            "ner-fa": {
                "column_idx": 3,
                "task_type": "seq_bio"
            }
        },
        "word_idx": 0
    },
    "SEMEVAL11.hi": {
        "train_data_path": "../data/task11/train.hi.conll",
        "validation_data_path": "../data/task11/dev.hi.conll",
        "tasks": {
            "ner-hi": {
                "column_idx": 3,
                "task_type": "seq_bio"
            }
        },
        "word_idx": 0
    },
    "SEMEVAL11.ko": {
        "train_data_path": "../data/task11/train.ko.conll",
        "validation_data_path": "../data/task11/dev.ko.conll",
        "tasks": {
            "ner-ko": {
                "column_idx": 3,
                "task_type": "seq_bio"
            }
        },
        "word_idx": 0
    }
}